[
    {
        "_id": "5b8171ee23b284565f704506",
        "nameEn": "Isuzu",
        "nameAr": "ايسوزو"
    },
    {
        "_id": "5b8171ee23b284565f704507",
        "nameEn": "BMW",
        "nameAr": "بي ام دبليو"
    },
    {
        "_id": "5b8171ee23b284565f704508",
        "nameEn": "Toyota",
        "nameAr": "تويوتا"
    },
    {
        "_id": "5b8171ee23b284565f704509",
        "nameEn": "Galent",
        "nameAr": "جالنت"
    },
    {
        "_id": "5b8171ee23b284565f70450a",
        "nameEn": "GMC",
        "nameAr": "جمس"
    },
    {
        "_id": "5b8171ee23b284565f70450b",
        "nameEn": "private",
        "nameAr": "خصوصي"
    },
    {
        "_id": "5b8171ee23b284565f70450c",
        "nameEn": "Renault",
        "nameAr": "رينو"
    },
    {
        "_id": "5b8171ee23b284565f70450d",
        "nameEn": "Suzuki",
        "nameAr": "سوزوكي"
    },
    {
        "_id": "5b8171ee23b284565f70450e",
        "nameEn": "Chevrolet",
        "nameAr": "شيفورلية"
    },
    {
        "_id": "5b8171ee23b284565f70450f",
        "nameEn": "Ford",
        "nameAr": "فورد"
    },
    {
        "_id": "5b8171ee23b284565f704510",
        "nameEn": "Kia",
        "nameAr": "كيا"
    },
    {
        "_id": "5b8171ee23b284565f704511",
        "nameEn": "Lexus",
        "nameAr": "لكزس"
    },
    {
        "_id": "5b8171ee23b284565f704512",
        "nameEn": "Mitsubishi",
        "nameAr": "متسوبيشي"
    },
    {
        "_id": "5b8171ee23b284565f704513",
        "nameEn": "Nissan",
        "nameAr": "نيسان"
    },
    {
        "_id": "5b8171ee23b284565f704514",
        "nameEn": "Hyundai",
        "nameAr": "هونداي"
    },
    {
        "_id": "5b8171ee23b284565f704515",
        "nameEn": "Honda",
        "nameAr": "هوندا"
    }
]