[
    {
        "_id": "5b817084ca8263519df90781",
        "nameEn": "Saudi",
        "nameAr": "سعودي"
    },
    {
        "_id": "5b817084ca8263519df90782",
        "nameEn": "Egyptian",
        "nameAr": "مصري"
    },
    {
        "_id": "5b817084ca8263519df90783",
        "nameEn": "Afghan",
        "nameAr": "افغانى"
    },
    {
        "_id": "5b817084ca8263519df90784",
        "nameEn": "Albania",
        "nameAr": "البانى"
    },
    {
        "_id": "5b817084ca8263519df90785",
        "nameEn": "Algerian",
        "nameAr": "جزائرى"
    },
    {
        "_id": "5b817084ca8263519df90786",
        "nameEn": "Angoli",
        "nameAr": "انجولى"
    },
    {
        "_id": "5b817084ca8263519df90787",
        "nameEn": "Argentina",
        "nameAr": "ارجنتينى"
    },
    {
        "_id": "5b817084ca8263519df90788",
        "nameEn": "Armenian",
        "nameAr": "ارمينى"
    },
    {
        "_id": "5b817084ca8263519df90789",
        "nameEn": "Australian",
        "nameAr": "استرالى"
    },
    {
        "_id": "5b817084ca8263519df9078a",
        "nameEn": "Austrian",
        "nameAr": "نمساوى"
    },
    {
        "_id": "5b817084ca8263519df9078b",
        "nameEn": "Bahrain",
        "nameAr": "بحرينى"
    },
    {
        "_id": "5b817084ca8263519df9078c",
        "nameEn": "Bangladesh",
        "nameAr": "بنجلاديشى"
    },
    {
        "_id": "5b817084ca8263519df9078d",
        "nameEn": "Belgian",
        "nameAr": "بلجيكى"
    },
    {
        "_id": "5b817084ca8263519df9078e",
        "nameEn": "Benny",
        "nameAr": "بنينى"
    },
    {
        "_id": "5b817084ca8263519df9078f",
        "nameEn": "Bolivian",
        "nameAr": "بوليفي"
    },
    {
        "_id": "5b817084ca8263519df90790",
        "nameEn": "Brazilian",
        "nameAr": "برازيلى"
    },
    {
        "_id": "5b817084ca8263519df90791",
        "nameEn": "British",
        "nameAr": "بريطاني"
    },
    {
        "_id": "5b817084ca8263519df90792",
        "nameEn": "CAD",
        "nameAr": "كندي"
    },
    {
        "_id": "5b817084ca8263519df90793",
        "nameEn": "Chinese",
        "nameAr": "صيني"
    },
    {
        "_id": "5b817084ca8263519df90794",
        "nameEn": "Congolese",
        "nameAr": "كنغولي"
    },
    {
        "_id": "5b817084ca8263519df90795",
        "nameEn": "Croatian",
        "nameAr": "كرواتي"
    },
    {
        "_id": "5b817084ca8263519df90796",
        "nameEn": "Danish",
        "nameAr": "دنماركي"
    },
    {
        "_id": "5b817084ca8263519df90797",
        "nameEn": "Ecuador",
        "nameAr": "اكوادوري"
    },
    {
        "_id": "5b817084ca8263519df90798",
        "nameEn": "Estonian",
        "nameAr": "ايستواني"
    },
    {
        "_id": "5b817084ca8263519df90799",
        "nameEn": "Finnish",
        "nameAr": "فلندي"
    },
    {
        "_id": "5b817084ca8263519df9079a",
        "nameEn": "French",
        "nameAr": "فرنسي"
    },
    {
        "_id": "5b817084ca8263519df9079b",
        "nameEn": "Gabon",
        "nameAr": "جابونى"
    },
    {
        "_id": "5b817084ca8263519df9079c",
        "nameEn": "George",
        "nameAr": "جورجي"
    },
    {
        "_id": "5b817084ca8263519df9079d",
        "nameEn": "German",
        "nameAr": "الماني"
    },
    {
        "_id": "5b817084ca8263519df9079e",
        "nameEn": "Ghana",
        "nameAr": "غاني"
    },
    {
        "_id": "5b817084ca8263519df9079f",
        "nameEn": "Greek",
        "nameAr": "يوناني"
    },
    {
        "_id": "5b817084ca8263519df907a0",
        "nameEn": "Dutch",
        "nameAr": "هولندي"
    },
    {
        "_id": "5b817084ca8263519df907a1",
        "nameEn": "Hungarian",
        "nameAr": "هنجاري"
    },
    {
        "_id": "5b817084ca8263519df907a2",
        "nameEn": "Icelandic",
        "nameAr": "ايسلندي"
    },
    {
        "_id": "5b817084ca8263519df907a3",
        "nameEn": "Indian",
        "nameAr": "هندي"
    },
    {
        "_id": "5b817084ca8263519df907a4",
        "nameEn": "Indonesian",
        "nameAr": "اندونيسي"
    },
    {
        "_id": "5b817084ca8263519df907a5",
        "nameEn": "Iranian",
        "nameAr": "ايراني"
    },
    {
        "_id": "5b817084ca8263519df907a6",
        "nameEn": "Iraqi",
        "nameAr": "عراقي"
    },
    {
        "_id": "5b817084ca8263519df907a7",
        "nameEn": "Irish",
        "nameAr": "ايرلندى"
    },
    {
        "_id": "5b817084ca8263519df907a8",
        "nameEn": "Italian",
        "nameAr": "ايطالي"
    },
    {
        "_id": "5b817084ca8263519df907a9",
        "nameEn": "Jamaican",
        "nameAr": "جاميكي"
    },
    {
        "_id": "5b817084ca8263519df907aa",
        "nameEn": "Japanese",
        "nameAr": "ياباني"
    },
    {
        "_id": "5b817084ca8263519df907ab",
        "nameEn": "Jordanian",
        "nameAr": "اردني"
    },
    {
        "_id": "5b817084ca8263519df907ac",
        "nameEn": "Kenny",
        "nameAr": "كيني"
    },
    {
        "_id": "5b817084ca8263519df907ad",
        "nameEn": "Kuwaiti",
        "nameAr": "كويتي"
    },
    {
        "_id": "5b817084ca8263519df907ae",
        "nameEn": "Lebanese",
        "nameAr": "لبناني"
    },
    {
        "_id": "5b817084ca8263519df907af",
        "nameEn": "Lippi",
        "nameAr": "ليبي"
    },
    {
        "_id": "5b817084ca8263519df907b0",
        "nameEn": "Luxembourg",
        "nameAr": "لوكسمبورجي"
    },
    {
        "_id": "5b817084ca8263519df907b1",
        "nameEn": "Malawi",
        "nameAr": "مالاوي"
    },
    {
        "_id": "5b817084ca8263519df907b2",
        "nameEn": "Malaysia",
        "nameAr": "ماليزي"
    },
    {
        "_id": "5b817084ca8263519df907b3",
        "nameEn": "Mauritanian",
        "nameAr": "موريتاني"
    },
    {
        "_id": "5b817084ca8263519df907b4",
        "nameEn": "Mexican",
        "nameAr": "مكسيكي"
    },
    {
        "_id": "5b817084ca8263519df907b5",
        "nameEn": "Moroccan",
        "nameAr": "مغربي"
    },
    {
        "_id": "5b817084ca8263519df907b6",
        "nameEn": "Mozambique",
        "nameAr": "موزمبيقى"
    },
    {
        "_id": "5b817084ca8263519df907b7",
        "nameEn": "New Zealand",
        "nameAr": "نيوزيلندي"
    },
    {
        "_id": "5b817084ca8263519df907b8",
        "nameEn": "Nigerian",
        "nameAr": "نيجيري"
    },
    {
        "_id": "5b817084ca8263519df907b9",
        "nameEn": "Norwegian",
        "nameAr": "نرويجي"
    },
    {
        "_id": "5b817084ca8263519df907ba",
        "nameEn": "Oman",
        "nameAr": "عماني"
    },
    {
        "_id": "5b817084ca8263519df907bb",
        "nameEn": "Pakistani",
        "nameAr": "باكستاني"
    },
    {
        "_id": "5b817084ca8263519df907bc",
        "nameEn": "A Palestinian",
        "nameAr": "فليسطيني"
    },
    {
        "_id": "5b817084ca8263519df907bd",
        "nameEn": "Peru",
        "nameAr": "بيرو"
    },
    {
        "_id": "5b817084ca8263519df907be",
        "nameEn": "Flippini",
        "nameAr": "فليبيني"
    },
    {
        "_id": "5b817084ca8263519df907bf",
        "nameEn": "Polish",
        "nameAr": "بولندي"
    },
    {
        "_id": "5b817084ca8263519df907c0",
        "nameEn": "Portuguese",
        "nameAr": "برتغالي"
    },
    {
        "_id": "5b817084ca8263519df907c1",
        "nameEn": "diagonal",
        "nameAr": "قطري"
    },
    {
        "_id": "5b817084ca8263519df907c2",
        "nameEn": "Russian",
        "nameAr": "روسي"
    },
    {
        "_id": "5b817084ca8263519df907c3",
        "nameEn": "Scotch",
        "nameAr": "اسكتلندي"
    },
    {
        "_id": "5b817084ca8263519df907c4",
        "nameEn": "SINGAPORE",
        "nameAr": "سنغافوري"
    },
    {
        "_id": "5b817084ca8263519df907c5",
        "nameEn": "Somali",
        "nameAr": "صومالي"
    },
    {
        "_id": "5b817084ca8263519df907c6",
        "nameEn": "South African",
        "nameAr": "جنوب افريقي"
    },
    {
        "_id": "5b817084ca8263519df907c7",
        "nameEn": "Spanish",
        "nameAr": "اسباني"
    },
    {
        "_id": "5b817084ca8263519df907c8",
        "nameEn": "Sri Lanka",
        "nameAr": "سيرلانكي"
    },
    {
        "_id": "5b817084ca8263519df907c9",
        "nameEn": "Sudanese",
        "nameAr": "سوداني"
    },
    {
        "_id": "5b817084ca8263519df907ca",
        "nameEn": "suede",
        "nameAr": "سويدي"
    },
    {
        "_id": "5b817084ca8263519df907cb",
        "nameEn": "Swiss",
        "nameAr": "سويسري"
    },
    {
        "_id": "5b817084ca8263519df907cc",
        "nameEn": "Syrian",
        "nameAr": "سوري"
    },
    {
        "_id": "5b817084ca8263519df907cd",
        "nameEn": "Taiwanese",
        "nameAr": "تايواني"
    },
    {
        "_id": "5b817084ca8263519df907ce",
        "nameEn": "Thai",
        "nameAr": "تايلاندي"
    },
    {
        "_id": "5b817084ca8263519df907cf",
        "nameEn": "Tunisia",
        "nameAr": "تونسي"
    },
    {
        "_id": "5b817084ca8263519df907d0",
        "nameEn": "Turki",
        "nameAr": "تركي"
    },
    {
        "_id": "5b817084ca8263519df907d1",
        "nameEn": "United Arab Emirates",
        "nameAr": "اماراتي"
    },
    {
        "_id": "5b817084ca8263519df907d2",
        "nameEn": "American",
        "nameAr": "امريكي"
    },
    {
        "_id": "5b817084ca8263519df907d3",
        "nameEn": "Yemeni",
        "nameAr": "يمني"
    },
    {
        "_id": "5b817084ca8263519df907d4",
        "nameEn": "Zambi",
        "nameAr": "زامبي"
    },
    {
        "_id": "5b817084ca8263519df907d5",
        "nameEn": "Nabili",
        "nameAr": "نبالى"
    },
    {
        "_id": "5b817084ca8263519df907d6",
        "nameEn": "Ethiopian",
        "nameAr": "اثيوبي"
    },
    {
        "_id": "5b817084ca8263519df907d7",
        "nameEn": "Bosnia and Herzegovina",
        "nameAr": "البوسنة والهارسك"
    },
    {
        "_id": "5b817084ca8263519df907d8",
        "nameEn": "Mena Mar",
        "nameAr": "مينا مار"
    },
    {
        "_id": "5b817084ca8263519df907d9",
        "nameEn": "South Korea",
        "nameAr": "كوريا الجنوبيه"
    },
    {
        "_id": "5b817084ca8263519df907da",
        "nameEn": "Eritrea",
        "nameAr": "إريتريا"
    },
    {
        "_id": "5b817084ca8263519df907db",
        "nameEn": "Chadian",
        "nameAr": "تشادي"
    },
    {
        "_id": "5b817084ca8263519df907dc",
        "nameEn": "Niger",
        "nameAr": "النيجر"
    }
]